…
```r
items
```

```
## # A tibble: 4,565 x 16
##    num_id id    name  category orderable sell_value sell_currency buy_value
##     <dbl> <chr> <chr> <chr>    <lgl>          <dbl> <chr>             <dbl>
##  1     12 3d-g… 3D G… Accesso… NA               122 bells               490
##  2     14 a-tee A Tee Tops     NA               140 bells               560
##  3     17 abst… Abst… Wallpap… TRUE             390 bells              1560
##  4     19 acad… Acad… Dresses  NA               520 bells              2080
##  5     20 acan… Acan… Fossils  FALSE           2000 bells                NA
##  6     21 acce… Acce… Furnitu… TRUE             375 bells              1500
##  7     23 acid… Acid… Tops     TRUE             420 bells              1680
##  8     24 acid… Acid… Bottoms  TRUE             330 bells              1320
##  9     26 acnh… Acnh… Furnitu… TRUE            8990 bells             35960
## 10     26 acnh… Acnh… Furnitu… TRUE            8990 bells             35960
## # … with 4,555 more rows, and 8 more variables: buy_currency <chr>,
## #   sources <chr>, customizable <lgl>, recipe <dbl>, recipe_id <chr>,
## #   games_id <chr>, id_full <chr>, image_url <chr>
```
